<?xml version="1.0" encoding="UTF-8" ?>
<!DOCTYPE svg PUBLIC "-//W3C//DTD SVG 1.1//EN" "http://www.w3.org/Graphics/SVG/1.1/DTD/svg11.dtd">
<svg width="700pt" height="120pt" viewBox="0 0 700 120" version="1.1" xmlns="http://www.w3.org/2000/svg">
<g id="#e7a83e">
<path fill="#e7a83e" d=" M 7.49 40.60 C 32.61 27.26 57.83 14.01 82.95 0.72 C 87.41 1.82 91.27 4.56 95.38 6.52 C 104.41 10.88 113.04 16.10 122.28 19.98 C 122.34 17.08 122.31 14.17 122.40 11.26 C 127.44 11.04 132.52 10.82 137.55 11.26 C 138.78 16.72 137.91 22.33 138.28 27.86 C 139.76 30.06 142.83 30.51 145.01 31.90 C 150.81 35.22 156.99 37.84 162.69 41.34 C 162.82 41.71 163.10 42.46 163.24 42.83 C 144.18 43.25 125.11 42.87 106.05 42.90 C 72.62 42.83 39.18 42.98 5.75 42.85 C 5.97 41.79 6.55 41.04 7.49 40.60 Z" />
<path fill="#e7a83e" d=" M 199.00 4.00 C 199.50 4.00 200.50 4.00 201.00 4.00 C 201.00 41.67 201.00 79.33 201.00 117.00 C 200.50 117.00 199.50 117.00 199.00 117.00 C 199.00 79.33 199.00 41.67 199.00 4.00 Z" />
<path fill="#e7a83e" d=" M 425.12 33.26 C 432.82 32.32 441.28 33.51 447.44 38.57 C 447.41 37.05 447.39 35.53 447.38 34.01 C 452.30 33.99 457.21 34.00 462.13 34.00 C 462.13 41.33 462.13 48.67 462.13 56.00 C 457.23 55.99 452.33 56.01 447.44 55.99 C 445.34 51.63 441.09 48.13 436.11 47.99 C 431.96 47.57 427.18 49.30 425.52 53.41 C 423.73 58.02 423.78 63.10 423.91 67.97 C 424.24 71.99 424.45 76.67 427.67 79.57 C 431.19 82.50 436.69 82.94 440.59 80.54 C 442.81 79.13 443.06 76.37 443.41 74.02 C 441.27 74.00 439.13 74.00 437.00 74.00 C 437.00 70.33 437.00 66.67 437.00 63.00 C 446.14 63.00 455.29 62.99 464.43 63.01 C 464.18 68.90 464.40 75.15 461.67 80.55 C 458.04 87.21 451.89 92.67 444.46 94.57 C 433.21 97.59 420.82 95.84 410.59 90.38 C 397.54 82.67 394.34 64.47 400.12 51.25 C 404.57 41.47 414.46 34.43 425.12 33.26 Z" />
<path fill="#e7a83e" d=" M 231.73 34.00 C 244.07 34.06 256.41 33.87 268.75 34.10 C 271.59 41.82 274.77 49.40 277.64 57.11 C 280.64 49.37 283.85 41.73 286.87 34.00 C 299.07 34.00 311.27 34.00 323.47 34.00 C 323.47 39.00 323.47 44.00 323.47 49.00 C 321.88 49.00 320.31 49.00 318.73 49.00 C 318.73 59.51 318.73 70.02 318.74 80.53 C 320.36 80.53 321.98 80.52 323.62 80.50 C 323.58 85.33 323.60 90.16 323.61 94.99 C 312.98 95.01 302.36 95.00 291.73 95.00 C 291.73 90.18 291.74 85.35 291.73 80.53 C 293.35 80.53 294.97 80.53 296.60 80.54 C 296.62 69.25 296.55 57.96 296.64 46.68 C 290.48 62.78 284.32 78.88 278.20 95.00 C 275.13 95.00 272.06 95.00 269.00 95.00 C 262.99 78.96 256.77 63.01 250.74 46.98 C 250.72 58.17 250.73 69.35 250.74 80.53 C 252.36 80.53 253.98 80.52 255.62 80.51 C 255.58 85.33 255.60 90.16 255.61 94.99 C 247.69 95.01 239.78 95.00 231.87 95.00 C 231.86 90.18 231.87 85.36 231.86 80.54 C 233.44 80.53 235.02 80.53 236.60 80.54 C 236.60 70.03 236.59 59.52 236.61 49.01 C 234.98 49.00 233.35 49.00 231.73 48.99 C 231.73 44.00 231.73 39.00 231.73 34.00 Z" />
<path fill="#e7a83e" d=" M 328.60 34.00 C 339.22 34.00 349.84 34.00 360.47 34.00 C 360.47 38.83 360.45 43.67 360.48 48.50 C 359.58 48.49 357.78 48.45 356.88 48.43 C 358.97 52.65 361.13 56.83 363.39 60.96 C 366.08 56.83 368.67 52.64 371.30 48.46 C 370.36 48.47 368.46 48.48 367.51 48.49 C 367.55 43.66 367.52 38.83 367.53 34.00 C 375.35 34.00 383.18 34.00 391.00 34.00 C 391.00 38.82 391.00 43.64 391.00 48.47 C 389.75 48.47 388.51 48.47 387.27 48.47 C 382.16 55.90 376.96 63.27 371.85 70.70 C 371.88 73.97 371.87 77.23 371.84 80.50 C 373.43 80.51 375.02 80.52 376.62 80.52 C 376.58 85.34 376.60 90.17 376.61 94.99 C 365.49 95.01 354.38 95.00 343.26 94.99 C 343.27 90.15 343.27 85.31 343.26 80.47 C 344.88 80.50 346.51 80.52 348.14 80.53 C 348.08 77.27 348.26 74.01 348.05 70.75 C 343.16 63.17 337.71 55.95 332.68 48.46 C 331.31 48.46 329.95 48.47 328.60 48.47 C 328.60 43.65 328.60 38.82 328.60 34.00 Z" />
<path fill="#e7a83e" d=" M 481.26 34.01 C 495.88 33.99 510.51 34.00 525.13 34.00 C 525.13 39.00 525.13 44.00 525.13 48.99 C 523.48 49.00 521.84 49.00 520.21 49.01 C 524.19 59.52 527.94 70.12 532.04 80.58 C 533.49 80.55 534.94 80.53 536.40 80.51 C 536.39 85.34 536.40 90.17 536.40 95.00 C 525.78 95.00 515.15 95.00 504.53 95.00 C 504.52 90.50 504.55 85.99 504.51 81.49 C 506.28 81.52 508.05 81.53 509.84 81.54 C 509.06 79.07 508.31 76.59 507.62 74.08 C 502.37 73.91 497.11 74.03 491.86 74.00 C 491.03 76.52 490.13 79.02 489.25 81.52 C 490.91 81.53 492.60 81.53 494.27 81.54 C 494.26 86.03 494.27 90.51 494.27 95.00 C 486.18 95.00 478.09 95.00 470.00 95.00 C 470.00 90.18 470.00 85.35 470.00 80.53 C 471.53 80.53 473.07 80.54 474.62 80.55 C 478.48 70.05 482.34 59.54 486.10 49.00 C 484.48 49.00 482.87 49.00 481.26 48.99 C 481.27 44.00 481.27 39.00 481.26 34.01 M 499.97 49.03 C 498.04 54.68 496.17 60.34 494.20 65.97 C 497.85 66.01 501.51 66.01 505.16 65.98 C 503.43 60.33 501.70 54.68 499.97 49.03 Z" />
<path fill="#e7a83e" d=" M 539.13 34.00 C 559.22 34.00 579.31 34.00 599.40 34.00 C 599.40 40.82 599.39 47.65 599.41 54.47 C 593.97 54.48 588.54 54.42 583.12 54.51 C 583.12 52.67 583.13 50.84 583.14 49.00 C 578.57 49.00 574.01 48.99 569.46 49.01 C 569.47 52.18 569.46 55.35 569.48 58.52 C 572.98 58.54 576.49 58.53 580.00 58.53 C 580.00 62.51 580.00 66.49 580.00 70.47 C 576.49 70.47 572.98 70.46 569.48 70.48 C 569.46 73.83 569.46 77.18 569.48 80.53 C 571.81 80.53 574.14 80.53 576.49 80.51 C 576.44 85.34 576.47 90.17 576.47 95.00 C 564.11 94.99 551.75 95.02 539.39 94.98 C 539.40 90.16 539.41 85.33 539.38 80.50 C 541.49 80.53 543.61 80.54 545.73 80.55 C 545.74 70.03 545.73 59.52 545.74 49.01 C 543.53 49.00 541.33 49.00 539.13 49.00 C 539.13 44.00 539.13 39.00 539.13 34.00 Z" />
<path fill="#e7a83e" d=" M 603.13 34.00 C 623.22 34.00 643.31 34.00 663.40 34.00 C 663.40 40.82 663.39 47.65 663.41 54.47 C 657.97 54.48 652.54 54.43 647.12 54.51 C 647.12 52.67 647.13 50.84 647.14 49.00 C 642.56 49.02 637.99 48.95 633.42 49.06 C 633.48 52.21 633.46 55.37 633.47 58.52 C 636.98 58.54 640.49 58.53 644.00 58.53 C 644.00 62.51 644.00 66.49 644.00 70.47 C 640.49 70.47 636.98 70.46 633.48 70.48 C 633.46 73.83 633.46 77.18 633.48 80.53 C 635.81 80.53 638.14 80.53 640.49 80.51 C 640.44 85.34 640.47 90.17 640.47 95.00 C 628.11 95.00 615.75 95.01 603.39 94.99 C 603.40 90.16 603.41 85.33 603.38 80.50 C 605.49 80.53 607.61 80.54 609.73 80.55 C 609.74 70.03 609.73 59.52 609.74 49.01 C 607.53 49.00 605.33 49.00 603.13 49.00 C 603.13 44.00 603.13 39.00 603.13 34.00 Z" />
<path fill="#e7a83e" d=" M 14.36 47.57 C 43.90 47.31 73.44 47.59 102.99 47.46 C 108.64 47.37 114.33 47.88 119.94 46.99 C 131.01 47.16 142.12 47.34 153.21 47.51 C 153.46 70.60 153.27 93.69 153.22 116.79 C 140.82 116.77 128.42 116.83 116.02 116.79 C 109.57 116.65 103.07 117.89 96.68 116.47 C 96.76 105.98 96.88 95.48 96.42 85.00 C 96.46 80.02 97.32 74.77 94.89 70.16 C 92.97 67.24 89.93 65.43 86.95 63.76 C 82.21 62.81 77.07 64.18 73.66 67.67 C 71.67 70.23 70.42 73.23 70.12 76.48 C 70.80 82.99 69.64 89.44 69.86 95.95 C 69.82 102.90 69.71 109.85 69.77 116.80 C 51.27 116.48 32.76 116.99 14.25 116.82 C 13.42 115.71 13.34 114.33 13.40 112.99 C 13.48 91.46 13.37 69.92 13.49 48.40 C 13.71 48.19 14.14 47.78 14.36 47.57 M 26.90 76.00 C 26.83 78.17 26.37 80.61 27.18 82.63 C 30.42 82.87 33.68 82.68 36.93 82.75 C 36.80 77.07 36.96 71.38 36.94 65.70 C 31.78 66.33 27.15 70.70 26.90 76.00 M 39.84 65.58 C 39.51 71.33 39.54 77.08 39.74 82.83 C 42.99 82.83 46.25 82.84 49.50 82.82 C 49.48 78.68 50.37 73.96 47.51 70.49 C 45.89 67.69 42.82 66.39 39.84 65.58 M 118.06 71.01 C 116.54 74.62 116.83 78.63 116.77 82.46 C 120.05 82.69 123.33 82.61 126.61 82.58 C 126.97 76.92 127.54 71.04 126.28 65.49 C 123.39 66.95 119.79 68.09 118.06 71.01 M 129.80 65.55 C 129.48 71.28 129.59 77.04 129.85 82.77 C 133.08 82.72 136.30 82.79 139.53 82.77 C 139.52 79.46 139.34 76.14 139.25 72.83 C 137.05 69.32 134.06 66.29 129.80 65.55 M 26.81 86.00 C 27.07 89.48 26.22 93.36 27.26 96.60 C 30.41 96.83 33.57 96.64 36.73 96.68 C 36.87 93.15 36.55 89.62 36.61 86.08 C 33.34 85.98 30.07 85.98 26.81 86.00 M 39.91 86.08 C 39.54 89.61 39.53 93.16 39.65 96.70 C 42.93 96.68 46.20 96.60 49.48 96.51 C 49.62 93.04 49.59 89.57 49.56 86.10 C 46.34 86.09 43.13 86.09 39.91 86.08 M 116.80 85.91 C 116.82 89.44 116.82 92.97 116.71 96.50 C 120.08 96.82 123.48 96.67 126.86 96.69 C 127.07 93.08 127.07 89.47 126.77 85.87 C 123.45 85.87 120.13 85.85 116.80 85.91 M 129.77 86.10 C 129.35 89.61 129.46 93.16 129.60 96.69 C 132.89 96.69 136.18 96.69 139.47 96.68 C 139.62 93.14 139.58 89.58 139.57 86.04 C 136.30 85.96 133.03 86.03 129.77 86.10 Z" />
</g>
</svg>
